\relax 
\citation{Bib:noreen}
\citation{Bib:xu}
\citation{Bib:noreen}
\citation{Bib:rosebrock}
\@writefile{toc}{\contentsline {section}{\numberline {I}Introduction}{1}}
\@writefile{toc}{\contentsline {section}{\numberline {II}Related Work}{1}}
\@writefile{toc}{\contentsline {section}{\numberline {III}Implementation}{1}}
\@writefile{toc}{\contentsline {subsection}{\numberline {III-A}Thresholding}{1}}
\citation{Bib:tatipamula}
\citation{Bib:maciek}
\citation{Bib:maciek}
\@writefile{lof}{\contentsline {figure}{\numberline {1}{\ignorespaces Processing flow of captured image}}{2}}
\newlabel{fig:image_algo}{{1}{2}}
\@writefile{lof}{\contentsline {figure}{\numberline {2}{\ignorespaces Result of thresholding HSV image}}{2}}
\newlabel{fig:handthresh}{{2}{2}}
\@writefile{toc}{\contentsline {subsection}{\numberline {III-B}Contours}{2}}
\@writefile{toc}{\contentsline {subsection}{\numberline {III-C}Convex Hull}{2}}
\@writefile{toc}{\contentsline {subsection}{\numberline {III-D}Convexity Defects}{2}}
\newlabel{sec:convex_defects}{{III-D}{2}}
\@writefile{lof}{\contentsline {figure}{\numberline {3}{\ignorespaces Convex Hull Around Thresholded Hand}}{2}}
\newlabel{fig:convexhull}{{3}{2}}
\@writefile{lof}{\contentsline {figure}{\numberline {4}{\ignorespaces Convexity Defects Drawn on Convex Hull}}{2}}
\newlabel{fig:convexitydefects}{{4}{2}}
\@writefile{toc}{\contentsline {subsubsection}{\numberline {III-D.1}Finding Defects}{2}}
\@writefile{toc}{\contentsline {subsubsection}{\numberline {III-D.2}Rejection of Superfluous Defects}{2}}
\citation{Bib:mbondr}
\@writefile{toc}{\contentsline {subsection}{\numberline {III-E}Hand XY Position}{3}}
\@writefile{toc}{\contentsline {subsection}{\numberline {III-F}Theremin}{3}}
\@writefile{toc}{\contentsline {subsubsection}{\numberline {III-F.1}Implementation}{3}}
\@writefile{toc}{\contentsline {subsubsection}{\numberline {III-F.2}Controls}{3}}
\@writefile{lof}{\contentsline {figure}{\numberline {5}{\ignorespaces The Visual Theremin control scheme}}{3}}
\newlabel{fig:controlMap}{{5}{3}}
\@writefile{toc}{\contentsline {section}{\numberline {IV}Results and Discussion}{3}}
\@writefile{toc}{\contentsline {subsection}{\numberline {IV-A}Findings}{3}}
\@writefile{toc}{\contentsline {subsubsection}{\numberline {IV-A.1}Success Cases}{3}}
\@writefile{lof}{\contentsline {figure}{\numberline {6}{\ignorespaces Successful Hand Detection}}{3}}
\newlabel{fig:success1}{{6}{3}}
\@writefile{toc}{\contentsline {subsubsection}{\numberline {IV-A.2}Fail Cases}{3}}
\bibcite{Bib:noreen}{1}
\bibcite{Bib:xu}{2}
\bibcite{Bib:rosebrock}{3}
\bibcite{Bib:tatipamula}{4}
\bibcite{Bib:maciek}{5}
\bibcite{Bib:mbondr}{6}
\@writefile{lof}{\contentsline {figure}{\numberline {7}{\ignorespaces Successful Hand Detection}}{4}}
\newlabel{fig:success2}{{7}{4}}
\@writefile{lof}{\contentsline {figure}{\numberline {8}{\ignorespaces Hand Detection Failure}}{4}}
\newlabel{fig:failure1}{{8}{4}}
\@writefile{lof}{\contentsline {figure}{\numberline {9}{\ignorespaces Hand Detection Failure}}{4}}
\newlabel{fig:failure2}{{9}{4}}
\@writefile{toc}{\contentsline {subsection}{\numberline {IV-B}Future Work}{4}}
\@writefile{toc}{\contentsline {section}{\numberline {V}Conclusion}{4}}
\@writefile{toc}{\contentsline {section}{References}{4}}
